name	latitude	longitude
knams	52.356671	4.952501
esams	52.391165	4.665267
eqsin	1.29556	103.790346
ulsfo	37.723407	-122.397923
codfw	32.991929	-96.930465
eqiad	39.016363	-77.459023
drmrs	43.310818	5.373865
